%!PS-Adobe-3.0 EPSF-3.0
%%Creator: MATLAB, The MathWorks, Inc. Version 8.3.0.532 (R2014a). Operating System: Darwin 13.1.0 Darwin Kernel Version 13.1.0: Thu Jan 16 19:40:37 PST 2014; root:xnu-2422.90.20~2/RELEASE_X86_64 x86_64.
%%Title: /Users/MGJulius/Dropbox/Graduate/2014 Spring/Research/Documentation/1dexample3.eps
%%CreationDate: 06/04/2014  01:42:47
%%DocumentNeededFonts: Helvetica
%%DocumentProcessColors: Cyan Magenta Yellow Black
%%LanguageLevel: 2
%%Pages: 1
%%BoundingBox:    26   186   585   606
%%EndComments

%%BeginProlog
% MathWorks dictionary
/MathWorks 160 dict begin
% definition operators
/bdef {bind def} bind def
/ldef {load def} bind def
/xdef {exch def} bdef
/xstore {exch store} bdef
% operator abbreviations
/c  /clip ldef
/cc /concat ldef
/cp /closepath ldef
/gr /grestore ldef
/gs /gsave ldef
/mt /moveto ldef
/np /newpath ldef
/cm /currentmatrix ldef
/sm /setmatrix ldef
/rm /rmoveto ldef
/rl /rlineto ldef
/s {show newpath} bdef
/sc {setcmykcolor} bdef
/sr /setrgbcolor ldef
/sg /setgray ldef
/w /setlinewidth ldef
/j /setlinejoin ldef
/cap /setlinecap ldef
/rc {rectclip} bdef
/rf {rectfill} bdef
% page state control
/pgsv () def
/bpage {/pgsv save def} bdef
/epage {pgsv restore} bdef
/bplot /gsave ldef
/eplot {stroke grestore} bdef
% orientation switch
/portraitMode 0 def /landscapeMode 1 def /rotateMode 2 def
% coordinate system mappings
/dpi2point 0 def
% font control
/FontSize 0 def
/FMS {/FontSize xstore findfont [FontSize 0 0 FontSize neg 0 0]
  makefont setfont} bdef
/reencode {exch dup where {pop load} {pop StandardEncoding} ifelse
  exch dup 3 1 roll findfont dup length dict begin
  { 1 index /FID ne {def}{pop pop} ifelse } forall
  /Encoding exch def currentdict end definefont pop} bdef
/isroman {findfont /CharStrings get /Agrave known} bdef
/FMSR {3 1 roll 1 index dup isroman {reencode} {pop pop} ifelse
  exch FMS} bdef
/csm {1 dpi2point div -1 dpi2point div scale neg translate
 dup landscapeMode eq {pop -90 rotate}
  {rotateMode eq {90 rotate} if} ifelse} bdef
% line types: solid, dotted, dashed, dotdash
/SO { [] 0 setdash } bdef
/DO { [.5 dpi2point mul 4 dpi2point mul] 0 setdash } bdef
/DA { [6 dpi2point mul] 0 setdash } bdef
/DD { [.5 dpi2point mul 4 dpi2point mul 6 dpi2point mul 4
  dpi2point mul] 0 setdash } bdef
% macros for lines and objects
/L {lineto stroke} bdef
/MP {3 1 roll moveto 1 sub {rlineto} repeat} bdef
/AP {{rlineto} repeat} bdef
/PDlw -1 def
/W {/PDlw currentlinewidth def setlinewidth} def
/PP {closepath eofill} bdef
/DP {closepath stroke} bdef
/MR {4 -2 roll moveto dup  0 exch rlineto exch 0 rlineto
  neg 0 exch rlineto closepath} bdef
/FR {MR stroke} bdef
/PR {MR fill} bdef
/L1i {{currentfile picstr readhexstring pop} image} bdef
/tMatrix matrix def
/MakeOval {newpath tMatrix currentmatrix pop translate scale
0 0 1 0 360 arc tMatrix setmatrix} bdef
/FO {MakeOval stroke} bdef
/PO {MakeOval fill} bdef
/PD {currentlinewidth 2 div 0 360 arc fill
   PDlw -1 eq not {PDlw w /PDlw -1 def} if} def
/FA {newpath tMatrix currentmatrix pop translate scale
  0 0 1 5 -2 roll arc tMatrix setmatrix stroke} bdef
/PA {newpath tMatrix currentmatrix pop	translate 0 0 moveto scale
  0 0 1 5 -2 roll arc closepath tMatrix setmatrix fill} bdef
/FAn {newpath tMatrix currentmatrix pop translate scale
  0 0 1 5 -2 roll arcn tMatrix setmatrix stroke} bdef
/PAn {newpath tMatrix currentmatrix pop translate 0 0 moveto scale
  0 0 1 5 -2 roll arcn closepath tMatrix setmatrix fill} bdef
/vradius 0 def /hradius 0 def /lry 0 def
/lrx 0 def /uly 0 def /ulx 0 def /rad 0 def
/MRR {/vradius xdef /hradius xdef /lry xdef /lrx xdef /uly xdef
  /ulx xdef newpath tMatrix currentmatrix pop ulx hradius add uly
  vradius add translate hradius vradius scale 0 0 1 180 270 arc 
  tMatrix setmatrix lrx hradius sub uly vradius add translate
  hradius vradius scale 0 0 1 270 360 arc tMatrix setmatrix
  lrx hradius sub lry vradius sub translate hradius vradius scale
  0 0 1 0 90 arc tMatrix setmatrix ulx hradius add lry vradius sub
  translate hradius vradius scale 0 0 1 90 180 arc tMatrix setmatrix
  closepath} bdef
/FRR {MRR stroke } bdef
/PRR {MRR fill } bdef
/MlrRR {/lry xdef /lrx xdef /uly xdef /ulx xdef /rad lry uly sub 2 div def
  newpath tMatrix currentmatrix pop ulx rad add uly rad add translate
  rad rad scale 0 0 1 90 270 arc tMatrix setmatrix lrx rad sub lry rad
  sub translate rad rad scale 0 0 1 270 90 arc tMatrix setmatrix
  closepath} bdef
/FlrRR {MlrRR stroke } bdef
/PlrRR {MlrRR fill } bdef
/MtbRR {/lry xdef /lrx xdef /uly xdef /ulx xdef /rad lrx ulx sub 2 div def
  newpath tMatrix currentmatrix pop ulx rad add uly rad add translate
  rad rad scale 0 0 1 180 360 arc tMatrix setmatrix lrx rad sub lry rad
  sub translate rad rad scale 0 0 1 0 180 arc tMatrix setmatrix
  closepath} bdef
/FtbRR {MtbRR stroke } bdef
/PtbRR {MtbRR fill } bdef
/stri 6 array def /dtri 6 array def
/smat 6 array def /dmat 6 array def
/tmat1 6 array def /tmat2 6 array def /dif 3 array def
/asub {/ind2 exch def /ind1 exch def dup dup
  ind1 get exch ind2 get sub exch } bdef
/tri_to_matrix {
  2 0 asub 3 1 asub 4 0 asub 5 1 asub
  dup 0 get exch 1 get 7 -1 roll astore } bdef
/compute_transform {
  dmat dtri tri_to_matrix tmat1 invertmatrix 
  smat stri tri_to_matrix tmat2 concatmatrix } bdef
/ds {stri astore pop} bdef
/dt {dtri astore pop} bdef
/db {2 copy /cols xdef /rows xdef mul dup 3 mul string
  currentfile 
  3 index 0 eq {/ASCIIHexDecode filter}
  {/ASCII85Decode filter 3 index 2 eq {/RunLengthDecode filter} if }
  ifelse exch readstring pop
  dup 0 3 index getinterval /rbmap xdef
  dup 2 index dup getinterval /gbmap xdef
  1 index dup 2 mul exch getinterval /bbmap xdef pop pop}bdef
/it {gs np dtri aload pop moveto lineto lineto cp c
  cols rows 8 compute_transform 
  rbmap gbmap bbmap true 3 colorimage gr}bdef
/il {newpath moveto lineto stroke}bdef
currentdict end def
%%EndProlog

%%BeginSetup
MathWorks begin

0 cap

end
%%EndSetup

%%Page: 1 1
%%BeginPageSetup
%%PageBoundingBox:    26   186   585   606
MathWorks begin
bpage
%%EndPageSetup

%%BeginObject: obj1
bplot

/dpi2point 12 def
portraitMode 0312 7272 csm

    0     0  6719  5040 rc
85 dict begin %Colortable dictionary
/c0 { 0.000000 0.000000 0.000000 sr} bdef
/c1 { 1.000000 1.000000 1.000000 sr} bdef
/c2 { 0.900000 0.000000 0.000000 sr} bdef
/c3 { 0.000000 0.820000 0.000000 sr} bdef
/c4 { 0.000000 0.000000 0.800000 sr} bdef
/c5 { 0.910000 0.820000 0.320000 sr} bdef
/c6 { 1.000000 0.260000 0.820000 sr} bdef
/c7 { 0.000000 0.820000 0.820000 sr} bdef
c0
1 j
1 sg
   0    0 6720 5041 rf
6 w
0 4108 5208 0 0 -4108 873 4486 4 MP
PP
-5208 0 0 4108 5208 0 0 -4108 873 4486 5 MP stroke
4 w
DO
SO
6 w
0 sg
 873 4486 mt 6081 4486 L
 873  378 mt 6081  378 L
 873 4486 mt  873  378 L
6081 4486 mt 6081  378 L
 873 4486 mt 6081 4486 L
 873 4486 mt  873  378 L
 873 4486 mt  873 4433 L
 873  378 mt  873  430 L
%%IncludeResource: font Helvetica
/Helvetica /ISOLatin1Encoding 120 FMSR

 840 4631 mt 
(0) s
1393 4486 mt 1393 4433 L
1393  378 mt 1393  430 L
1310 4631 mt 
(0.1) s
1914 4486 mt 1914 4433 L
1914  378 mt 1914  430 L
1831 4631 mt 
(0.2) s
2435 4486 mt 2435 4433 L
2435  378 mt 2435  430 L
2352 4631 mt 
(0.3) s
2956 4486 mt 2956 4433 L
2956  378 mt 2956  430 L
2873 4631 mt 
(0.4) s
3477 4486 mt 3477 4433 L
3477  378 mt 3477  430 L
3394 4631 mt 
(0.5) s
3997 4486 mt 3997 4433 L
3997  378 mt 3997  430 L
3914 4631 mt 
(0.6) s
4518 4486 mt 4518 4433 L
4518  378 mt 4518  430 L
4435 4631 mt 
(0.7) s
5039 4486 mt 5039 4433 L
5039  378 mt 5039  430 L
4956 4631 mt 
(0.8) s
5560 4486 mt 5560 4433 L
5560  378 mt 5560  430 L
5477 4631 mt 
(0.9) s
6081 4486 mt 6081 4433 L
6081  378 mt 6081  430 L
6048 4631 mt 
(1) s
 873 4486 mt  925 4486 L
6081 4486 mt 6028 4486 L
 772 4530 mt 
(0) s
 873 4029 mt  925 4029 L
6081 4029 mt 6028 4029 L
 772 4073 mt 
(1) s
 873 3573 mt  925 3573 L
6081 3573 mt 6028 3573 L
 772 3617 mt 
(2) s
 873 3116 mt  925 3116 L
6081 3116 mt 6028 3116 L
 772 3160 mt 
(3) s
 873 2660 mt  925 2660 L
6081 2660 mt 6028 2660 L
 772 2704 mt 
(4) s
 873 2203 mt  925 2203 L
6081 2203 mt 6028 2203 L
 772 2247 mt 
(5) s
 873 1747 mt  925 1747 L
6081 1747 mt 6028 1747 L
 772 1791 mt 
(6) s
 873 1290 mt  925 1290 L
6081 1290 mt 6028 1290 L
 772 1334 mt 
(7) s
 873  834 mt  925  834 L
6081  834 mt 6028  834 L
 772  878 mt 
(8) s
 873  378 mt  925  378 L
6081  378 mt 6028  378 L
 772  422 mt 
(9) s
 873  324 mt 
(x 10) s
%%IncludeResource: font Helvetica
/Helvetica /ISOLatin1Encoding 80 FMSR

1099  250 mt 
(-3) s
 873 4486 mt 6081 4486 L
 873  378 mt 6081  378 L
 873 4486 mt  873  378 L
6081 4486 mt 6081  378 L
gs 873 378 5209 4109 rc
/c8 { 0.000000 0.000000 1.000000 sr} bdef
c8
11 -341 10 -329 11 -317 10 -306 11 -294 10 -282 10 -271 11 -259 
10 -247 11 -236 10 -224 10 -213 11 -201 10 -189 11 -83 10 167 
11 155 10 143 10 132 11 120 10 109 11 97 10 86 10 74 
11 63 10 51 11 40 10 29 11 17 10 6 10 -6 11 -17 
10 -29 11 -40 10 -51 10 -63 11 -74 10 -85 11 -97 10 -108 
11 -119 10 -131 10 -142 11 -153 10 -165 11 62 10 187 10 199 
11 209 10 221 11 -108 10 -104 11 -99 10 -95 10 -90 11 -86 
10 -81 11 -77 10 -73 10 -68 11 -43 10 59 11 55 10 50 
11 47 10 41 10 38 11 33 10 29 11 25 10 20 10 16 
11 11 10 7 11 4 10 -2 11 -5 10 -10 10 -14 11 -18 
10 -23 11 -26 10 -31 10 -35 11 -40 10 -43 11 -48 10 -52 
11 -56 10 -25 10 64 11 69 10 72 11 77 10 81 10 85 
11 89 10 93 11 97 10 101 11 -98 10 -93 10 -90 11 -86 
10 -82 11 -77 10 -74 10 -70 11 -65 10 -62 11 -39 10 53 
11 50 10 46 10 42 11 37 10 34 11 30 10 26 10 23 
11 18 10 14 11 11 10 6 10 3 11 -1 10 -5 11 -9 
10 -12 11 -17 10 -20 10 -24 11 -28 10 -32 11 -36 10 -39 
10 -43 11 -47 10 -51 11 -23 10 58 11 62 10 66 10 69 
11 74 10 76 11 81 10 84 10 88 11 92 10 -89 11 -85 
10 -81 11 -77 10 -74 10 -71 11 -66 10 -63 11 -60 10 -56 
10 -35 11 48 10 45 11 42 10 38 11 34 10 31 10 27 
11 23 10 20 11 17 10 13 10 9 11 6 10 3 11 -1 
10 -5 11 -8 10 -11 10 -15 11 -18 10 -22 11 -26 10 -28 
10 -33 11 -35 10 -39 11 -43 10 -46 11 -20 10 52 10 56 
11 60 10 63 11 66 10 69 10 73 11 76 10 80 11 83 
10 -80 11 -77 10 -74 10 -70 11 -67 10 -63 11 -60 10 -57 
10 -54 11 -51 10 -32 11 44 10 41 11 37 10 34 10 31 
11 28 10 25 11 21 10 18 10 15 11 12 10 9 11 5 
10 2 11 -1 10 -4 10 -7 11 -10 10 -14 11 -17 10 -19 
10 -23 11 -26 10 -29 11 -33 10 -35 11 -38 10 -42 10 -19 
11 48 10 51 11 54 10 56 10 60 11 63 10 66 11 69 
10 72 10 75 11 -72 10 -70 11 -66 10 -64 11 -61 10 -57 
10 -55 11 -51 10 -49 11 -45 10 -30 10 40 11 37 10 34 
11 31 10 28 11 25 10 22 10 19 11 17 10 13 11 11 
10 8 10 5 11 2 10 -1 11 -4 10 -6 11 -10 10 -12 
10 -15 11 -18 10 -21 11 -23 10 -26 10 -30 11 -32 10 -34 
11 -38 10 -17 11 43 10 46 10 49 11 51 10 54 11 57 
10 60 10 62 11 66 2966 3986 300 MP stroke
10 67 11 -65 10 -63 11 -60 10 -58 10 -54 11 -53 10 -49 
11 -47 10 -44 10 -41 11 -26 10 36 11 33 10 31 11 28 
10 25 10 23 11 20 10 17 11 15 10 12 10 10 11 7 
10 5 11 1 10 0 11 -4 10 -6 10 -8 11 -11 10 -14 
11 -16 10 -19 10 -21 11 -24 10 -26 11 -29 10 -32 11 -34 
10 -15 10 39 11 42 10 44 11 46 10 49 10 52 11 54 
10 56 11 59 10 61 11 -59 10 -57 10 -54 11 -52 10 -50 
11 -47 10 -45 10 -42 11 -40 10 -37 11 -24 10 33 11 30 
10 27 10 26 11 23 10 20 11 19 10 15 10 14 11 11 
10 9 11 6 10 4 10 2 11 -1 10 -3 11 -5 10 -8 
11 -10 10 -12 10 -15 11 -17 10 -19 11 -22 10 -24 10 -26 
11 -28 10 -31 11 -14 10 35 11 38 10 40 10 42 11 44 
10 47 11 49 10 51 10 53 11 56 10 -54 11 -52 10 -49 
11 -47 10 -45 10 -42 11 -41 10 -38 11 -36 10 -34 10 -22 
11 30 10 27 11 25 10 23 11 21 10 19 10 16 11 15 
10 12 11 10 10 8 10 5 11 4 10 1 11 0 10 -3 
11 -5 10 -7 10 -9 11 -11 10 -13 11 -15 10 -18 10 -19 
11 -22 10 -24 11 -25 10 -28 11 -13 10 32 10 34 11 36 
10 38 11 40 10 42 10 45 11 46 10 48 11 50 10 -97 
11 -93 10 -87 10 -82 11 -43 10 72 11 68 10 62 10 57 
11 52 10 48 11 42 10 37 11 33 10 27 10 22 11 18 
10 12 11 8 10 2 10 -3 11 -7 10 -13 11 -17 10 -22 
11 -28 10 -32 10 -37 11 -42 10 -47 11 -52 10 -57 10 -62 
11 -67 10 -71 11 36 10 81 11 87 10 91 10 96 11 101 
10 106 11 111 10 115 10 121 11 125 10 131 11 135 10 140 
10 145 873 2844 202 MP stroke
gr

c8
0 sg
%%IncludeResource: font Helvetica
/Helvetica /ISOLatin1Encoding 120 FMSR

2707  283 mt 
(Error of Numerical Derivative) s

end %%Color Dict

eplot
%%EndObject

epage
end

showpage

%%Trailer
%%EOF
