%!PS-Adobe-3.0 EPSF-3.0
%%Creator: MATLAB, The MathWorks, Inc. Version 8.3.0.532 (R2014a). Operating System: Darwin 13.1.0 Darwin Kernel Version 13.1.0: Thu Jan 16 19:40:37 PST 2014; root:xnu-2422.90.20~2/RELEASE_X86_64 x86_64.
%%Title: /Users/MGJulius/Dropbox/Graduate/2014 Spring/Research/Documentation/1dexample2.eps
%%CreationDate: 06/04/2014  01:32:21
%%DocumentNeededFonts: Helvetica
%%DocumentProcessColors: Cyan Magenta Yellow Black
%%LanguageLevel: 2
%%Pages: 1
%%BoundingBox:    26   186   585   606
%%EndComments

%%BeginProlog
% MathWorks dictionary
/MathWorks 160 dict begin
% definition operators
/bdef {bind def} bind def
/ldef {load def} bind def
/xdef {exch def} bdef
/xstore {exch store} bdef
% operator abbreviations
/c  /clip ldef
/cc /concat ldef
/cp /closepath ldef
/gr /grestore ldef
/gs /gsave ldef
/mt /moveto ldef
/np /newpath ldef
/cm /currentmatrix ldef
/sm /setmatrix ldef
/rm /rmoveto ldef
/rl /rlineto ldef
/s {show newpath} bdef
/sc {setcmykcolor} bdef
/sr /setrgbcolor ldef
/sg /setgray ldef
/w /setlinewidth ldef
/j /setlinejoin ldef
/cap /setlinecap ldef
/rc {rectclip} bdef
/rf {rectfill} bdef
% page state control
/pgsv () def
/bpage {/pgsv save def} bdef
/epage {pgsv restore} bdef
/bplot /gsave ldef
/eplot {stroke grestore} bdef
% orientation switch
/portraitMode 0 def /landscapeMode 1 def /rotateMode 2 def
% coordinate system mappings
/dpi2point 0 def
% font control
/FontSize 0 def
/FMS {/FontSize xstore findfont [FontSize 0 0 FontSize neg 0 0]
  makefont setfont} bdef
/reencode {exch dup where {pop load} {pop StandardEncoding} ifelse
  exch dup 3 1 roll findfont dup length dict begin
  { 1 index /FID ne {def}{pop pop} ifelse } forall
  /Encoding exch def currentdict end definefont pop} bdef
/isroman {findfont /CharStrings get /Agrave known} bdef
/FMSR {3 1 roll 1 index dup isroman {reencode} {pop pop} ifelse
  exch FMS} bdef
/csm {1 dpi2point div -1 dpi2point div scale neg translate
 dup landscapeMode eq {pop -90 rotate}
  {rotateMode eq {90 rotate} if} ifelse} bdef
% line types: solid, dotted, dashed, dotdash
/SO { [] 0 setdash } bdef
/DO { [.5 dpi2point mul 4 dpi2point mul] 0 setdash } bdef
/DA { [6 dpi2point mul] 0 setdash } bdef
/DD { [.5 dpi2point mul 4 dpi2point mul 6 dpi2point mul 4
  dpi2point mul] 0 setdash } bdef
% macros for lines and objects
/L {lineto stroke} bdef
/MP {3 1 roll moveto 1 sub {rlineto} repeat} bdef
/AP {{rlineto} repeat} bdef
/PDlw -1 def
/W {/PDlw currentlinewidth def setlinewidth} def
/PP {closepath eofill} bdef
/DP {closepath stroke} bdef
/MR {4 -2 roll moveto dup  0 exch rlineto exch 0 rlineto
  neg 0 exch rlineto closepath} bdef
/FR {MR stroke} bdef
/PR {MR fill} bdef
/L1i {{currentfile picstr readhexstring pop} image} bdef
/tMatrix matrix def
/MakeOval {newpath tMatrix currentmatrix pop translate scale
0 0 1 0 360 arc tMatrix setmatrix} bdef
/FO {MakeOval stroke} bdef
/PO {MakeOval fill} bdef
/PD {currentlinewidth 2 div 0 360 arc fill
   PDlw -1 eq not {PDlw w /PDlw -1 def} if} def
/FA {newpath tMatrix currentmatrix pop translate scale
  0 0 1 5 -2 roll arc tMatrix setmatrix stroke} bdef
/PA {newpath tMatrix currentmatrix pop	translate 0 0 moveto scale
  0 0 1 5 -2 roll arc closepath tMatrix setmatrix fill} bdef
/FAn {newpath tMatrix currentmatrix pop translate scale
  0 0 1 5 -2 roll arcn tMatrix setmatrix stroke} bdef
/PAn {newpath tMatrix currentmatrix pop translate 0 0 moveto scale
  0 0 1 5 -2 roll arcn closepath tMatrix setmatrix fill} bdef
/vradius 0 def /hradius 0 def /lry 0 def
/lrx 0 def /uly 0 def /ulx 0 def /rad 0 def
/MRR {/vradius xdef /hradius xdef /lry xdef /lrx xdef /uly xdef
  /ulx xdef newpath tMatrix currentmatrix pop ulx hradius add uly
  vradius add translate hradius vradius scale 0 0 1 180 270 arc 
  tMatrix setmatrix lrx hradius sub uly vradius add translate
  hradius vradius scale 0 0 1 270 360 arc tMatrix setmatrix
  lrx hradius sub lry vradius sub translate hradius vradius scale
  0 0 1 0 90 arc tMatrix setmatrix ulx hradius add lry vradius sub
  translate hradius vradius scale 0 0 1 90 180 arc tMatrix setmatrix
  closepath} bdef
/FRR {MRR stroke } bdef
/PRR {MRR fill } bdef
/MlrRR {/lry xdef /lrx xdef /uly xdef /ulx xdef /rad lry uly sub 2 div def
  newpath tMatrix currentmatrix pop ulx rad add uly rad add translate
  rad rad scale 0 0 1 90 270 arc tMatrix setmatrix lrx rad sub lry rad
  sub translate rad rad scale 0 0 1 270 90 arc tMatrix setmatrix
  closepath} bdef
/FlrRR {MlrRR stroke } bdef
/PlrRR {MlrRR fill } bdef
/MtbRR {/lry xdef /lrx xdef /uly xdef /ulx xdef /rad lrx ulx sub 2 div def
  newpath tMatrix currentmatrix pop ulx rad add uly rad add translate
  rad rad scale 0 0 1 180 360 arc tMatrix setmatrix lrx rad sub lry rad
  sub translate rad rad scale 0 0 1 0 180 arc tMatrix setmatrix
  closepath} bdef
/FtbRR {MtbRR stroke } bdef
/PtbRR {MtbRR fill } bdef
/stri 6 array def /dtri 6 array def
/smat 6 array def /dmat 6 array def
/tmat1 6 array def /tmat2 6 array def /dif 3 array def
/asub {/ind2 exch def /ind1 exch def dup dup
  ind1 get exch ind2 get sub exch } bdef
/tri_to_matrix {
  2 0 asub 3 1 asub 4 0 asub 5 1 asub
  dup 0 get exch 1 get 7 -1 roll astore } bdef
/compute_transform {
  dmat dtri tri_to_matrix tmat1 invertmatrix 
  smat stri tri_to_matrix tmat2 concatmatrix } bdef
/ds {stri astore pop} bdef
/dt {dtri astore pop} bdef
/db {2 copy /cols xdef /rows xdef mul dup 3 mul string
  currentfile 
  3 index 0 eq {/ASCIIHexDecode filter}
  {/ASCII85Decode filter 3 index 2 eq {/RunLengthDecode filter} if }
  ifelse exch readstring pop
  dup 0 3 index getinterval /rbmap xdef
  dup 2 index dup getinterval /gbmap xdef
  1 index dup 2 mul exch getinterval /bbmap xdef pop pop}bdef
/it {gs np dtri aload pop moveto lineto lineto cp c
  cols rows 8 compute_transform 
  rbmap gbmap bbmap true 3 colorimage gr}bdef
/il {newpath moveto lineto stroke}bdef
currentdict end def
%%EndProlog

%%BeginSetup
MathWorks begin

0 cap

end
%%EndSetup

%%Page: 1 1
%%BeginPageSetup
%%PageBoundingBox:    26   186   585   606
MathWorks begin
bpage
%%EndPageSetup

%%BeginObject: obj1
bplot

/dpi2point 12 def
portraitMode 0312 7272 csm

    0     0  6719  5040 rc
85 dict begin %Colortable dictionary
/c0 { 0.000000 0.000000 0.000000 sr} bdef
/c1 { 1.000000 1.000000 1.000000 sr} bdef
/c2 { 0.900000 0.000000 0.000000 sr} bdef
/c3 { 0.000000 0.820000 0.000000 sr} bdef
/c4 { 0.000000 0.000000 0.800000 sr} bdef
/c5 { 0.910000 0.820000 0.320000 sr} bdef
/c6 { 1.000000 0.260000 0.820000 sr} bdef
/c7 { 0.000000 0.820000 0.820000 sr} bdef
c0
1 j
1 sg
   0    0 6720 5041 rf
6 w
0 4108 5208 0 0 -4108 873 4486 4 MP
PP
-5208 0 0 4108 5208 0 0 -4108 873 4486 5 MP stroke
4 w
DO
SO
6 w
0 sg
 873 4486 mt 6081 4486 L
 873  378 mt 6081  378 L
 873 4486 mt  873  378 L
6081 4486 mt 6081  378 L
 873 4486 mt 6081 4486 L
 873 4486 mt  873  378 L
 990 4486 mt  990 4433 L
 990  378 mt  990  430 L
%%IncludeResource: font Helvetica
/Helvetica /ISOLatin1Encoding 120 FMSR

 887 4631 mt 
(-6) s
1819 4486 mt 1819 4433 L
1819  378 mt 1819  430 L
1716 4631 mt 
(-4) s
2648 4486 mt 2648 4433 L
2648  378 mt 2648  430 L
2545 4631 mt 
(-2) s
3477 4486 mt 3477 4433 L
3477  378 mt 3477  430 L
3444 4631 mt 
(0) s
4305 4486 mt 4305 4433 L
4305  378 mt 4305  430 L
4272 4631 mt 
(2) s
5134 4486 mt 5134 4433 L
5134  378 mt 5134  430 L
5101 4631 mt 
(4) s
5963 4486 mt 5963 4433 L
5963  378 mt 5963  430 L
5930 4631 mt 
(6) s
 873 4486 mt  925 4486 L
6081 4486 mt 6028 4486 L
 602 4530 mt 
(-2.5) s
 873 4075 mt  925 4075 L
6081 4075 mt 6028 4075 L
 702 4119 mt 
(-2) s
 873 3664 mt  925 3664 L
6081 3664 mt 6028 3664 L
 602 3708 mt 
(-1.5) s
 873 3253 mt  925 3253 L
6081 3253 mt 6028 3253 L
 702 3297 mt 
(-1) s
 873 2842 mt  925 2842 L
6081 2842 mt 6028 2842 L
 602 2886 mt 
(-0.5) s
 873 2432 mt  925 2432 L
6081 2432 mt 6028 2432 L
 772 2476 mt 
(0) s
 873 2021 mt  925 2021 L
6081 2021 mt 6028 2021 L
 672 2065 mt 
(0.5) s
 873 1610 mt  925 1610 L
6081 1610 mt 6028 1610 L
 772 1654 mt 
(1) s
 873 1199 mt  925 1199 L
6081 1199 mt 6028 1199 L
 672 1243 mt 
(1.5) s
 873  788 mt  925  788 L
6081  788 mt 6028  788 L
 772  832 mt 
(2) s
 873  378 mt  925  378 L
6081  378 mt 6028  378 L
 672  422 mt 
(2.5) s
 873 4486 mt 6081 4486 L
 873  378 mt 6081  378 L
 873 4486 mt  873  378 L
6081 4486 mt 6081  378 L
gs 873 378 5209 4109 rc
/c8 { 0.000000 0.000000 1.000000 sr} bdef
c8
11 -4 10 -7 11 -11 10 -14 11 -19 10 -22 10 -26 11 -30 
10 -34 11 -38 10 -41 10 -45 11 -49 21 -109 10 -52 21 -130 
21 -137 21 -142 10 -74 83 -646 42 -326 21 -160 21 -154 21 -147 
20 -141 21 -135 11 -65 20 -113 11 -54 10 -51 11 -47 10 -43 
11 -40 10 -35 10 -32 11 -28 10 -24 11 -21 10 -16 10 -13 
11 -9 10 -6 11 0 10 6 11 9 10 13 10 16 11 21 
10 24 11 28 10 32 10 35 11 40 10 43 11 47 10 51 
21 113 10 54 21 132 21 138 21 144 21 150 10 78 42 326 
41 331 21 165 21 158 21 152 21 146 21 139 20 133 11 65 
21 108 10 53 11 49 10 45 10 41 11 38 10 34 11 30 
10 26 10 22 11 19 10 14 11 11 10 7 10 4 11 -4 
10 -7 11 -11 10 -14 11 -19 10 -22 10 -26 11 -30 10 -34 
11 -38 10 -41 10 -45 11 -49 21 -109 10 -52 21 -130 21 -137 
21 -142 10 -74 83 -646 42 -326 21 -160 21 -154 21 -147 20 -141 
21 -135 11 -65 20 -113 11 -54 10 -51 11 -47 10 -43 11 -40 
10 -35 10 -32 11 -28 10 -24 11 -21 10 -16 10 -13 11 -9 
10 -6 11 0 10 6 11 9 10 13 10 16 11 21 10 24 
11 28 10 32 10 35 11 40 10 43 11 47 10 51 21 113 
10 54 21 132 21 138 21 144 21 150 10 78 42 326 41 331 
21 165 21 158 21 152 21 146 21 139 20 133 11 65 21 108 
10 53 11 49 10 45 10 41 11 38 10 34 11 30 10 26 
10 22 11 19 10 14 11 11 10 7 10 4 11 -4 10 -7 
11 -11 10 -14 11 -19 10 -22 10 -26 11 -30 10 -34 11 -38 
10 -41 10 -45 11 -49 21 -109 10 -52 21 -130 21 -137 21 -142 
10 -74 83 -646 42 -326 21 -160 21 -154 21 -147 20 -141 21 -135 
11 -65 20 -113 11 -54 10 -51 11 -47 10 -43 11 -40 10 -35 
10 -32 11 -28 10 -24 11 -21 10 -16 10 -13 11 -9 10 -6 
11 0 10 6 11 9 10 13 10 16 11 21 10 24 11 28 
10 32 10 35 11 40 10 43 11 47 10 51 21 113 10 54 
21 132 21 138 21 144 21 150 10 78 42 326 41 331 21 165 
21 158 21 152 21 146 21 139 20 133 11 65 21 108 10 53 
11 49 10 45 10 41 11 38 10 34 11 30 10 26 10 22 
11 19 10 14 11 11 10 7 10 4 11 -4 10 -7 11 -11 
10 -14 11 -19 10 -22 10 -26 11 -30 10 -34 11 -38 10 -41 
10 -45 11 -49 21 -109 10 -52 21 -130 21 -137 21 -142 10 -74 
83 -646 42 -326 21 -160 21 -154 21 -147 20 -141 21 -135 11 -65 
20 -113 11 -54 10 -51 11 -47 10 -43 11 -40 10 -35 10 -32 
11 -28 10 -24 11 -21 1570 4032 300 MP stroke
10 -16 10 -13 11 -9 10 -6 11 0 10 6 11 9 10 13 
10 16 11 21 10 24 11 28 10 32 10 35 11 40 10 43 
11 47 10 51 21 113 10 54 21 132 11 68 20 141 11 73 
10 74 11 76 10 78 11 79 10 81 10 82 11 84 10 86 
11 74 10 86 10 85 11 83 10 82 11 80 10 78 11 77 
10 75 10 74 11 72 10 70 11 69 10 68 10 65 11 65 
10 52 11 56 10 53 11 49 10 45 10 41 11 38 10 34 
11 30 10 26 10 22 11 19 10 14 11 11 10 7 10 4 
873 786 65 MP stroke
gr

c8
0 sg
2924  283 mt 
(Numerical Derivative) s

end %%Color Dict

eplot
%%EndObject

epage
end

showpage

%%Trailer
%%EOF
