\relax 
\@writefile{toc}{\contentsline {section}{\numberline {1}Introduction}{1}}
\newlabel{maineqn}{{1}{1}}
\@writefile{toc}{\contentsline {section}{\numberline {2}Algorithm}{1}}
\newlabel{basiseqn}{{2}{1}}
\@writefile{toc}{\contentsline {section}{\numberline {3}One Dimension Case}{2}}
\@writefile{toc}{\contentsline {subsection}{\numberline {3.1}Syntax}{2}}
\@writefile{toc}{\contentsline {subsubsection}{\numberline {3.1.1}meshNumericalDerivative}{2}}
\@writefile{toc}{\contentsline {subsubsection}{\numberline {3.1.2}postProcessing}{3}}
\@writefile{toc}{\contentsline {subsection}{\numberline {3.2}Examples}{4}}
\@writefile{toc}{\contentsline {subsubsection}{\numberline {3.2.1}Derivative of $\qopname  \relax o{sin}(x)$ over $[-2\pi ,2\pi ]$}{4}}
\@writefile{toc}{\contentsline {subsubsection}{\numberline {3.2.2}Derivative of $\qopname  \relax o{sin}(2x)$ over $[-2\pi ,2\pi ]$}{5}}
\@writefile{toc}{\contentsline {subsubsection}{\numberline {3.2.3}Derivative of $e^x$ using a discrete input}{6}}
\@writefile{toc}{\contentsline {subsubsection}{\numberline {3.2.4}Derivative of $|x|$ with jumps}{7}}
\@writefile{toc}{\contentsline {subsubsection}{\numberline {3.2.5}Numerical Derivative of Functions with no Weak Derivative}{8}}
\newlabel{heavyside}{{3.2.5}{8}}
\@writefile{toc}{\contentsline {section}{\numberline {4}Two Dimension Case}{10}}
\@writefile{toc}{\contentsline {subsection}{\numberline {4.1}Prerequisites}{10}}
\newlabel{prereqs}{{4.1}{10}}
\@writefile{toc}{\contentsline {subsection}{\numberline {4.2}Syntax}{12}}
\@writefile{toc}{\contentsline {subsubsection}{\numberline {4.2.1}postProcessing}{14}}
\@writefile{toc}{\contentsline {subsection}{\numberline {4.3}Examples}{15}}
\@writefile{toc}{\contentsline {subsubsection}{\numberline {4.3.1}Partial Derivative of $x^3 + xy + y^2$ in $x$ direction}{15}}
\@writefile{toc}{\contentsline {subsubsection}{\numberline {4.3.2}Laplacian of a Harmonic Function}{15}}
\@writefile{toc}{\contentsline {section}{\numberline {5}Appendix}{16}}
\@writefile{toc}{\contentsline {subsection}{\numberline {5.1}Heaviside function}{16}}
\@writefile{toc}{\contentsline {subsection}{\numberline {5.2}$C^1$ function with compact support}{16}}
\newlabel{c1}{{5.2}{16}}
\@writefile{toc}{\contentsline {subsection}{\numberline {5.3}Harmonic function}{17}}
\newlabel{harmonic}{{5.3}{17}}
\@writefile{toc}{\contentsline {section}{\numberline {6}Concluding Remarks}{17}}
